%YAML 1.1
%TAG !u! tag:unity3d.com,2011:
--- !u!1 &1843844698
GameObject:
  m_ObjectHideFlags: 0
  m_CorrespondingSourceObject: {fileID: 0}
  m_PrefabInstance: {fileID: 0}
  m_PrefabAsset: {fileID: 0}
  serializedVersion: 6
  m_Component:
  - component: {fileID: 1843844703}
  - component: {fileID: 1843844702}
  - component: {fileID: 1843844700}
  m_Layer: 0
  m_Name: ClientManager
  m_TagString: Untagged
  m_Icon: {fileID: 0}
  m_NavMeshLayer: 0
  m_StaticEditorFlags: 0
  m_IsActive: 1
--- !u!4 &1843844703
Transform:
  m_ObjectHideFlags: 0
  m_CorrespondingSourceObject: {fileID: 0}
  m_PrefabInstance: {fileID: 0}
  m_PrefabAsset: {fileID: 0}
  m_GameObject: {fileID: 1843844698}
  m_LocalRotation: {x: 0, y: 0, z: 0, w: 1}
  m_LocalPosition: {x: 27.98095, y: 2.9836416, z: -7.074997}
  m_LocalScale: {x: 1, y: 1, z: 1}
  m_Children: []
  m_Father: {fileID: 0}
  m_RootOrder: 0
  m_LocalEulerAnglesHint: {x: 0, y: 0, z: 0}
--- !u!114 &1843844702
MonoBehaviour:
  m_ObjectHideFlags: 0
  m_CorrespondingSourceObject: {fileID: 0}
  m_PrefabInstance: {fileID: 0}
  m_PrefabAsset: {fileID: 0}
  m_GameObject: {fileID: 1843844698}
  m_Enabled: 1
  m_EditorHideFlags: 0
  m_Script: {fileID: 11500000, guid: 7d2b44c570cb28644b8762e0b13e7c23, type: 3}
  m_Name: 
  m_EditorClassIdentifier: 
  address: 127.0.0.1
  port: 4296
  ipVersion: 0
  autoConnect: 0
  invokeFromDispatcher: 1
  sniffData: 0
  maxCachedWriters: 2
  maxCachedReaders: 2
  maxCachedMessages: 8
  maxCachedSocketAsyncEventArgs: 32
  maxCachedActionDispatcherTasks: 16
--- !u!114 &1843844700
MonoBehaviour:
  m_ObjectHideFlags: 0
  m_CorrespondingSourceObject: {fileID: 0}
  m_PrefabInstance: {fileID: 0}
  m_PrefabAsset: {fileID: 0}
  m_GameObject: {fileID: 1843844698}
  m_Enabled: 1
  m_EditorHideFlags: 0
  m_Script: {fileID: 11500000, guid: 0c1b2c7f2a926e2419f13e9c9a36c8e7, type: 3}
  m_Name: 
  m_EditorClassIdentifier: 
  client: {fileID: 1843844702}
  player: {fileID: 5968850365621441660, guid: ca3cfce993ff51a46adb9c8dfc97cae7, type: 3}
  ping: 0
  pingRate: 3
  networkObjects:
    reorderableList:
      canAdd: 1
      canRemove: 1
      draggable: 1
      expandable: 1
      multipleSelection: 1
      isExpanded: 0
      label:
        m_Text: Keys
        m_Image: {fileID: 0}
        m_Tooltip: 
      headerHeight: 18
      footerHeight: 13
      slideEasing: 0.15
      verticalSpacing: 2
      showDefaultBackground: 1
      elementDisplayType: 0
      elementNameProperty: 
      elementNameOverride: 
      elementIcon: {fileID: 0}
    reqReferences: {fileID: 0}
    isExpanded: 0
    _keyValues: 
    _keys: 
    _values: []
  myPlayer: {fileID: 0}
